0 info it worked if it ends with ok
1 verbose cli [ '/usr/bin/node', '/usr/bin/npm', 'install' ]
2 info using npm@3.5.2
3 info using node@v8.10.0
4 silly loadCurrentTree Starting
5 silly install loadCurrentTree
6 silly install readLocalPackageData
7 silly install normalizeTree
8 silly loadCurrentTree Finishing
9 silly loadIdealTree Starting
10 silly install loadIdealTree
11 silly cloneCurrentTree Starting
12 silly install cloneCurrentTreeToIdealTree
13 silly cloneCurrentTree Finishing
14 silly loadShrinkwrap Starting
15 silly install loadShrinkwrap
16 silly loadShrinkwrap Finishing
17 silly loadAllDepsIntoIdealTree Starting
18 silly install loadAllDepsIntoIdealTree
19 silly fetchNamedPackageData axios
20 silly mapToRegistry name axios
21 silly mapToRegistry using default registry
22 silly mapToRegistry registry https://registry.npmjs.org/
23 silly mapToRegistry uri https://registry.npmjs.org/axios
24 silly fetchNamedPackageData cross-env
25 silly mapToRegistry name cross-env
26 silly mapToRegistry using default registry
27 silly mapToRegistry registry https://registry.npmjs.org/
28 silly mapToRegistry uri https://registry.npmjs.org/cross-env
29 silly fetchNamedPackageData laravel-mix
30 silly mapToRegistry name laravel-mix
31 silly mapToRegistry using default registry
32 silly mapToRegistry registry https://registry.npmjs.org/
33 silly mapToRegistry uri https://registry.npmjs.org/laravel-mix
34 silly fetchNamedPackageData lodash
35 silly mapToRegistry name lodash
36 silly mapToRegistry using default registry
37 silly mapToRegistry registry https://registry.npmjs.org/
38 silly mapToRegistry uri https://registry.npmjs.org/lodash
39 silly fetchNamedPackageData resolve-url-loader
40 silly mapToRegistry name resolve-url-loader
41 silly mapToRegistry using default registry
42 silly mapToRegistry registry https://registry.npmjs.org/
43 silly mapToRegistry uri https://registry.npmjs.org/resolve-url-loader
44 silly fetchNamedPackageData sass
45 silly mapToRegistry name sass
46 silly mapToRegistry using default registry
47 silly mapToRegistry registry https://registry.npmjs.org/
48 silly mapToRegistry uri https://registry.npmjs.org/sass
49 silly fetchNamedPackageData sass-loader
50 silly mapToRegistry name sass-loader
51 silly mapToRegistry using default registry
52 silly mapToRegistry registry https://registry.npmjs.org/
53 silly mapToRegistry uri https://registry.npmjs.org/sass-loader
54 verbose request uri https://registry.npmjs.org/axios
55 verbose request no auth needed
56 info attempt registry request try #1 at 8:18:33 PM
57 verbose request id dec308ac2f5209a9
58 http request GET https://registry.npmjs.org/axios
59 verbose request uri https://registry.npmjs.org/cross-env
60 verbose request no auth needed
61 info attempt registry request try #1 at 8:18:33 PM
62 http request GET https://registry.npmjs.org/cross-env
63 verbose request uri https://registry.npmjs.org/laravel-mix
64 verbose request no auth needed
65 info attempt registry request try #1 at 8:18:33 PM
66 http request GET https://registry.npmjs.org/laravel-mix
67 verbose request uri https://registry.npmjs.org/lodash
68 verbose request no auth needed
69 info attempt registry request try #1 at 8:18:33 PM
70 http request GET https://registry.npmjs.org/lodash
71 verbose request uri https://registry.npmjs.org/resolve-url-loader
72 verbose request no auth needed
73 info attempt registry request try #1 at 8:18:33 PM
74 http request GET https://registry.npmjs.org/resolve-url-loader
75 verbose request uri https://registry.npmjs.org/sass
76 verbose request no auth needed
77 info attempt registry request try #1 at 8:18:33 PM
78 http request GET https://registry.npmjs.org/sass
79 verbose request uri https://registry.npmjs.org/sass-loader
80 verbose request no auth needed
81 info attempt registry request try #1 at 8:18:33 PM
82 http request GET https://registry.npmjs.org/sass-loader
83 info retry will retry, error on last attempt: Error: getaddrinfo EAI_AGAIN registry.npmjs.org:443
84 info retry will retry, error on last attempt: Error: getaddrinfo EAI_AGAIN registry.npmjs.org:443
85 info retry will retry, error on last attempt: Error: getaddrinfo EAI_AGAIN registry.npmjs.org:443
86 info retry will retry, error on last attempt: Error: getaddrinfo EAI_AGAIN registry.npmjs.org:443
87 info attempt registry request try #2 at 8:18:53 PM
88 http request GET https://registry.npmjs.org/axios
89 info attempt registry request try #2 at 8:18:53 PM
90 http request GET https://registry.npmjs.org/cross-env
91 info retry will retry, error on last attempt: Error: getaddrinfo EAI_AGAIN registry.npmjs.org:443
92 info retry will retry, error on last attempt: Error: getaddrinfo EAI_AGAIN registry.npmjs.org:443
93 info retry will retry, error on last attempt: Error: getaddrinfo EAI_AGAIN registry.npmjs.org:443
94 info attempt registry request try #2 at 8:18:53 PM
95 http request GET https://registry.npmjs.org/laravel-mix
96 info attempt registry request try #2 at 8:18:53 PM
97 http request GET https://registry.npmjs.org/lodash
98 info attempt registry request try #2 at 8:19:03 PM
99 http request GET https://registry.npmjs.org/sass
100 info attempt registry request try #2 at 8:19:03 PM
101 http request GET https://registry.npmjs.org/resolve-url-loader
102 info attempt registry request try #2 at 8:19:03 PM
103 http request GET https://registry.npmjs.org/sass-loader
104 info retry will retry, error on last attempt: Error: getaddrinfo EAI_AGAIN registry.npmjs.org:443
105 info retry will retry, error on last attempt: Error: getaddrinfo EAI_AGAIN registry.npmjs.org:443
106 info retry will retry, error on last attempt: Error: getaddrinfo EAI_AGAIN registry.npmjs.org:443
107 info retry will retry, error on last attempt: Error: getaddrinfo EAI_AGAIN registry.npmjs.org:443
108 info retry will retry, error on last attempt: Error: getaddrinfo EAI_AGAIN registry.npmjs.org:443
109 info retry will retry, error on last attempt: Error: getaddrinfo EAI_AGAIN registry.npmjs.org:443
110 info retry will retry, error on last attempt: Error: getaddrinfo EAI_AGAIN registry.npmjs.org:443
111 info attempt registry request try #3 at 8:20:03 PM
112 http request GET https://registry.npmjs.org/cross-env
113 info attempt registry request try #3 at 8:20:03 PM
114 http request GET https://registry.npmjs.org/axios
115 info attempt registry request try #3 at 8:20:03 PM
116 http request GET https://registry.npmjs.org/laravel-mix
117 info attempt registry request try #3 at 8:20:03 PM
118 http request GET https://registry.npmjs.org/lodash
119 info attempt registry request try #3 at 8:20:13 PM
120 http request GET https://registry.npmjs.org/sass
121 info attempt registry request try #3 at 8:20:13 PM
122 http request GET https://registry.npmjs.org/resolve-url-loader
123 silly fetchPackageMetaData Error: getaddrinfo EAI_AGAIN registry.npmjs.org:443
123 silly fetchPackageMetaData     at Object._errnoException (util.js:1022:11)
123 silly fetchPackageMetaData     at errnoException (dns.js:55:15)
123 silly fetchPackageMetaData     at GetAddrInfoReqWrap.onlookup [as oncomplete] (dns.js:92:26)
123 silly fetchPackageMetaData  error for axios@^0.19 { Error: getaddrinfo EAI_AGAIN registry.npmjs.org:443
123 silly fetchPackageMetaData     at Object._errnoException (util.js:1022:11)
123 silly fetchPackageMetaData     at errnoException (dns.js:55:15)
123 silly fetchPackageMetaData     at GetAddrInfoReqWrap.onlookup [as oncomplete] (dns.js:92:26)
123 silly fetchPackageMetaData   code: 'EAI_AGAIN',
123 silly fetchPackageMetaData   errno: 'EAI_AGAIN',
123 silly fetchPackageMetaData   syscall: 'getaddrinfo',
123 silly fetchPackageMetaData   hostname: 'registry.npmjs.org',
123 silly fetchPackageMetaData   host: 'registry.npmjs.org',
123 silly fetchPackageMetaData   port: 443 }
124 silly fetchPackageMetaData Error: getaddrinfo EAI_AGAIN registry.npmjs.org:443
124 silly fetchPackageMetaData     at Object._errnoException (util.js:1022:11)
124 silly fetchPackageMetaData     at errnoException (dns.js:55:15)
124 silly fetchPackageMetaData     at GetAddrInfoReqWrap.onlookup [as oncomplete] (dns.js:92:26)
124 silly fetchPackageMetaData  error for cross-env@^7.0 { Error: getaddrinfo EAI_AGAIN registry.npmjs.org:443
124 silly fetchPackageMetaData     at Object._errnoException (util.js:1022:11)
124 silly fetchPackageMetaData     at errnoException (dns.js:55:15)
124 silly fetchPackageMetaData     at GetAddrInfoReqWrap.onlookup [as oncomplete] (dns.js:92:26)
124 silly fetchPackageMetaData   code: 'EAI_AGAIN',
124 silly fetchPackageMetaData   errno: 'EAI_AGAIN',
124 silly fetchPackageMetaData   syscall: 'getaddrinfo',
124 silly fetchPackageMetaData   hostname: 'registry.npmjs.org',
124 silly fetchPackageMetaData   host: 'registry.npmjs.org',
124 silly fetchPackageMetaData   port: 443 }
125 info attempt registry request try #3 at 8:20:13 PM
126 http request GET https://registry.npmjs.org/sass-loader
127 silly fetchPackageMetaData Error: getaddrinfo EAI_AGAIN registry.npmjs.org:443
127 silly fetchPackageMetaData     at Object._errnoException (util.js:1022:11)
127 silly fetchPackageMetaData     at errnoException (dns.js:55:15)
127 silly fetchPackageMetaData     at GetAddrInfoReqWrap.onlookup [as oncomplete] (dns.js:92:26)
127 silly fetchPackageMetaData  error for lodash@^4.17.19 { Error: getaddrinfo EAI_AGAIN registry.npmjs.org:443
127 silly fetchPackageMetaData     at Object._errnoException (util.js:1022:11)
127 silly fetchPackageMetaData     at errnoException (dns.js:55:15)
127 silly fetchPackageMetaData     at GetAddrInfoReqWrap.onlookup [as oncomplete] (dns.js:92:26)
127 silly fetchPackageMetaData   code: 'EAI_AGAIN',
127 silly fetchPackageMetaData   errno: 'EAI_AGAIN',
127 silly fetchPackageMetaData   syscall: 'getaddrinfo',
127 silly fetchPackageMetaData   hostname: 'registry.npmjs.org',
127 silly fetchPackageMetaData   host: 'registry.npmjs.org',
127 silly fetchPackageMetaData   port: 443 }
128 silly fetchPackageMetaData Error: getaddrinfo EAI_AGAIN registry.npmjs.org:443
128 silly fetchPackageMetaData     at Object._errnoException (util.js:1022:11)
128 silly fetchPackageMetaData     at errnoException (dns.js:55:15)
128 silly fetchPackageMetaData     at GetAddrInfoReqWrap.onlookup [as oncomplete] (dns.js:92:26)
128 silly fetchPackageMetaData  error for laravel-mix@^5.0.1 { Error: getaddrinfo EAI_AGAIN registry.npmjs.org:443
128 silly fetchPackageMetaData     at Object._errnoException (util.js:1022:11)
128 silly fetchPackageMetaData     at errnoException (dns.js:55:15)
128 silly fetchPackageMetaData     at GetAddrInfoReqWrap.onlookup [as oncomplete] (dns.js:92:26)
128 silly fetchPackageMetaData   code: 'EAI_AGAIN',
128 silly fetchPackageMetaData   errno: 'EAI_AGAIN',
128 silly fetchPackageMetaData   syscall: 'getaddrinfo',
128 silly fetchPackageMetaData   hostname: 'registry.npmjs.org',
128 silly fetchPackageMetaData   host: 'registry.npmjs.org',
128 silly fetchPackageMetaData   port: 443 }
129 silly fetchPackageMetaData Error: getaddrinfo EAI_AGAIN registry.npmjs.org:443
129 silly fetchPackageMetaData     at Object._errnoException (util.js:1022:11)
129 silly fetchPackageMetaData     at errnoException (dns.js:55:15)
129 silly fetchPackageMetaData     at GetAddrInfoReqWrap.onlookup [as oncomplete] (dns.js:92:26)
129 silly fetchPackageMetaData  error for sass@^1.15.2 { Error: getaddrinfo EAI_AGAIN registry.npmjs.org:443
129 silly fetchPackageMetaData     at Object._errnoException (util.js:1022:11)
129 silly fetchPackageMetaData     at errnoException (dns.js:55:15)
129 silly fetchPackageMetaData     at GetAddrInfoReqWrap.onlookup [as oncomplete] (dns.js:92:26)
129 silly fetchPackageMetaData   code: 'EAI_AGAIN',
129 silly fetchPackageMetaData   errno: 'EAI_AGAIN',
129 silly fetchPackageMetaData   syscall: 'getaddrinfo',
129 silly fetchPackageMetaData   hostname: 'registry.npmjs.org',
129 silly fetchPackageMetaData   host: 'registry.npmjs.org',
129 silly fetchPackageMetaData   port: 443 }
130 silly fetchPackageMetaData Error: getaddrinfo EAI_AGAIN registry.npmjs.org:443
130 silly fetchPackageMetaData     at Object._errnoException (util.js:1022:11)
130 silly fetchPackageMetaData     at errnoException (dns.js:55:15)
130 silly fetchPackageMetaData     at GetAddrInfoReqWrap.onlookup [as oncomplete] (dns.js:92:26)
130 silly fetchPackageMetaData  error for resolve-url-loader@^3.1.0 { Error: getaddrinfo EAI_AGAIN registry.npmjs.org:443
130 silly fetchPackageMetaData     at Object._errnoException (util.js:1022:11)
130 silly fetchPackageMetaData     at errnoException (dns.js:55:15)
130 silly fetchPackageMetaData     at GetAddrInfoReqWrap.onlookup [as oncomplete] (dns.js:92:26)
130 silly fetchPackageMetaData   code: 'EAI_AGAIN',
130 silly fetchPackageMetaData   errno: 'EAI_AGAIN',
130 silly fetchPackageMetaData   syscall: 'getaddrinfo',
130 silly fetchPackageMetaData   hostname: 'registry.npmjs.org',
130 silly fetchPackageMetaData   host: 'registry.npmjs.org',
130 silly fetchPackageMetaData   port: 443 }
131 silly fetchPackageMetaData Error: getaddrinfo EAI_AGAIN registry.npmjs.org:443
131 silly fetchPackageMetaData     at Object._errnoException (util.js:1022:11)
131 silly fetchPackageMetaData     at errnoException (dns.js:55:15)
131 silly fetchPackageMetaData     at GetAddrInfoReqWrap.onlookup [as oncomplete] (dns.js:92:26)
131 silly fetchPackageMetaData  error for sass-loader@^8.0.0 { Error: getaddrinfo EAI_AGAIN registry.npmjs.org:443
131 silly fetchPackageMetaData     at Object._errnoException (util.js:1022:11)
131 silly fetchPackageMetaData     at errnoException (dns.js:55:15)
131 silly fetchPackageMetaData     at GetAddrInfoReqWrap.onlookup [as oncomplete] (dns.js:92:26)
131 silly fetchPackageMetaData   code: 'EAI_AGAIN',
131 silly fetchPackageMetaData   errno: 'EAI_AGAIN',
131 silly fetchPackageMetaData   syscall: 'getaddrinfo',
131 silly fetchPackageMetaData   hostname: 'registry.npmjs.org',
131 silly fetchPackageMetaData   host: 'registry.npmjs.org',
131 silly fetchPackageMetaData   port: 443 }
132 silly rollbackFailedOptional Starting
133 silly rollbackFailedOptional Finishing
134 silly runTopLevelLifecycles Starting
135 silly runTopLevelLifecycles Finishing
136 silly install printInstalled
137 verbose stack Error: getaddrinfo EAI_AGAIN registry.npmjs.org:443
137 verbose stack     at Object._errnoException (util.js:1022:11)
137 verbose stack     at errnoException (dns.js:55:15)
137 verbose stack     at GetAddrInfoReqWrap.onlookup [as oncomplete] (dns.js:92:26)
138 verbose cwd /vagrant/site
139 error Linux 4.15.0-135-generic
140 error argv "/usr/bin/node" "/usr/bin/npm" "install"
141 error node v8.10.0
142 error npm  v3.5.2
143 error code EAI_AGAIN
144 error errno EAI_AGAIN
145 error syscall getaddrinfo
146 error getaddrinfo EAI_AGAIN registry.npmjs.org:443
147 error If you need help, you may report this error at:
147 error     <https://github.com/npm/npm/issues>
148 verbose exit [ 1, true ]
